[
    {
        "label" : "Dashboard",
        "icon" :"pi pi-fw pi-home",
        "routerLink" :"/mgm/root"
    },
    {
    "label" : "Settings",
    "expanded" :true,
    "items" : [
        {
            "label" : "BIC Administrator",
            "icon" :"pi pi-fw pi-microsoft",
            "routerLink" :"/mgm/root/appgroup"
        },
        {
          "label" : "Proxy Manager",
          "icon" :"pi pi-fw pi-bookmark",
          "routerLink" :"/mgm/root/users"
      }
    ]
    },
    {
    "label" : "Transaction Monitor",
    "icon":"pi pi-fw pi-chart-line",
    "routerLink" :"/mgm/root/appgroup"
    },
    {
    "label" : "Reports",
    "expanded" :true,
    "items" : [
        {
            "label" : "Transactions",
            "icon" :"pi pi-fw pi-download",
            "routerLink" :"/mgm/root/eventlog"

        }
    ]
    }
]